Division,WeightClassKg,Place,Name,Team,BodyweightKg,Best3SquatKg,Best3BenchKg,Best3DeadliftKg,TotalKg,Equipment,Event,Sex,BirthDate
Boys,51.71,1,Sebastian Garza,Sonora,50.71,136.08,70.31,138.35,344.73,Single-ply,SBD,M,
Boys,51.71,2,Ryan Fischer,Christoval,49.94,95.25,56.7,111.13,263.08,Single-ply,SBD,M,
Boys,55.79,1,Braden Watson,Center Point,53.75,165.56,102.06,172.37,439.98,Single-ply,SBD,M,
Boys,55.79,2,Angel Martinez #11,Big Lake Reagan County,55.52,181.44,92.99,149.69,424.11,Single-ply,SBD,M,
Boys,55.79,3,Lane Smith,Ozona,54.93,154.22,95.25,165.56,415.04,Single-ply,SBD,M,
Boys,55.79,4,Tevin Mead,Miles,52.66,138.35,83.91,136.08,358.34,Single-ply,SBD,M,
Boys,55.79,5,Juan Torres-Alvarez,Sonora,55.25,120.2,68.04,147.42,335.66,Single-ply,SBD,M,
Boys,55.79,6,Jasi Galindo,Eldorado,54.66,108.86,72.57,117.93,299.37,Single-ply,SBD,M,
Boys,55.79,7,Hunter Sertain,Ozona,54.75,79.38,43.09,97.52,219.99,Single-ply,SBD,M,
Boys,59.87,1,Manuel Torres,Miles,58.97,149.69,81.65,161.03,392.36,Single-ply,SBD,M,
Boys,59.87,2,Tyler Williams,Center Point,58.06,151.95,83.91,140.61,376.48,Single-ply,SBD,M,
Boys,59.87,3,Gahel Griner,Christoval,58.65,122.47,77.11,142.88,342.46,Single-ply,SBD,M,
Boys,59.87,4,Pedro Elizondo,Ozona,56.88,131.54,72.57,136.08,340.19,Single-ply,SBD,M,
Boys,59.87,5,Austin Medina,Miles,59.1,117.93,74.84,131.54,324.32,Single-ply,SBD,M,
Boys,67.13,1,Ignacio Coronado,Sonora,63.41,149.69,99.79,165.56,415.04,Single-ply,SBD,M,
Boys,67.13,2,Maurico Gallegos,Center Point,67.13,161.03,81.65,154.22,396.89,Single-ply,SBD,M,
Boys,67.13,3,Dylan McPherson,Christoval,64.14,147.42,83.91,149.69,381.02,Single-ply,SBD,M,
Boys,67.13,4,Ruben Bernal,Big Lake Reagan County,65.14,165.56,70.31,140.61,376.48,Single-ply,SBD,M,
Boys,67.13,5,Austin Wood,San Angelo Lake View,62.01,136.08,90.72,140.61,367.41,Single-ply,SBD,M,
Boys,67.13,6,Micheal Daniels,Ozona,62.82,154.22,70.31,142.88,367.41,Single-ply,SBD,M,
Boys,67.13,7,Gavin Gonzales,Junction,66.36,136.08,79.38,149.69,365.14,Single-ply,SBD,M,
Boys,67.13,8,Dillion Medina,Miles,62.51,120.2,79.38,158.76,358.34,Single-ply,SBD,M,
Boys,67.13,9,Austin Harris,Rocksprings,64.14,124.74,97.52,133.81,356.07,Single-ply,SBD,M,
Boys,67.13,10,Tristan Elkins,Christoval,62.51,127.01,79.38,138.35,344.73,Single-ply,SBD,M,
Boys,67.13,11,Jose Casteneda,Center Point,64.23,142.88,74.84,124.74,342.46,Single-ply,SBD,M,
Boys,67.13,12,Dallas Robinson,San Angelo Lake View,66.36,127.01,81.65,129.27,337.93,Single-ply,SBD,M,
Boys,67.13,13,Damien Davis,San Angelo Lake View,65.41,122.47,77.11,136.08,335.66,Single-ply,SBD,M,
Boys,67.13,14,Ranchie Pruitt,Christoval,61.64,129.27,77.11,127.01,333.39,Single-ply,SBD,M,
Boys,67.13,DQ,Ian Buchanan,Leakey,61.42,124.74,,154.22,,Single-ply,SBD,M,
Boys,74.84,1,Larry Telles,Junction,72.94,190.51,127.01,199.58,517.1,Single-ply,SBD,M,
Boys,74.84,2,Matthew DeLaGarza,Ozona,74.21,188.24,111.13,174.63,474,Single-ply,SBD,M,
Boys,74.84,3,Jackson Carroll,Sonora,71.94,181.44,86.18,199.58,467.2,Single-ply,SBD,M,
Boys,74.84,4,Abraham Fraga,Big Lake Reagan County,73.35,174.63,95.25,190.51,460.4,Single-ply,SBD,M,
Boys,74.84,5,Tanner Flanagan,Sonora,68.4,183.7,83.91,172.37,439.98,Single-ply,SBD,M,
Boys,74.84,6,Aizik Soto,Eldorado,74.12,149.69,90.72,185.97,426.38,Single-ply,SBD,M,
Boys,74.84,7,Victor Aguirre,San Angelo Lake View,68.22,145.15,97.52,140.61,383.29,Single-ply,SBD,M,
Boys,74.84,8,Devin Medina,Miles,71.26,124.74,90.72,167.83,383.29,Single-ply,SBD,M,
Boys,82.1,1,Carlos Cantu,Ozona,78.2,208.65,129.27,215.46,553.38,Single-ply,SBD,M,
Boys,82.1,2,Rino Hernandez,Sonora,79.83,183.7,97.52,213.19,494.42,Single-ply,SBD,M,
Boys,82.1,3,Tap Shanklin,Rocksprings,75.98,206.38,90.72,195.04,492.15,Single-ply,SBD,M,
Boys,82.1,4,Kase Pelzel,Miles,77.75,172.37,104.33,183.7,460.4,Single-ply,SBD,M,
Boys,82.1,5,Garrett Porter,Eldorado,81.92,163.29,108.86,183.7,455.86,Single-ply,SBD,M,
Boys,82.1,6,Eddie Flemma,Center Point,81.78,176.9,111.13,165.56,453.59,Single-ply,SBD,M,
Boys,82.1,7,Cristian Gutierrez,Big Lake Reagan County,80.47,181.44,90.72,149.69,421.84,Single-ply,SBD,M,
Boys,82.1,8,Daymien Galindo,Leakey,78.7,142.88,88.45,165.56,396.89,Single-ply,SBD,M,
Boys,82.1,9,Jarryn Puckett,Ozona,79.88,142.88,68.04,142.88,353.8,Single-ply,SBD,M,
Boys,82.1,10,Tristyn Timms,Ozona,76.97,83.91,45.36,108.86,238.14,Single-ply,SBD,M,
Boys,89.81,1,Beau Hernandez,Rocksprings,83.23,219.99,117.93,229.06,566.99,Single-ply,SBD,M,
Boys,89.81,2,Roman Rivero,Big Lake Reagan County,86.5,238.14,120.2,208.65,566.99,Single-ply,SBD,M,
Boys,89.81,3,Isaac Cervantes,Center Point,86,219.99,108.86,210.92,539.77,Single-ply,SBD,M,
Boys,89.81,4,Kade Miller,Miles,85.96,208.65,117.93,195.04,521.63,Single-ply,SBD,M,
Boys,89.81,5,Jd Salgado,San Angelo Lake View,89.22,192.78,117.93,185.97,496.68,Single-ply,SBD,M,
Boys,89.81,6,Ruben Guerrero,Leakey,89.13,174.63,92.99,170.1,437.72,Single-ply,SBD,M,
Boys,89.81,7,Mario Fernandez,Sonora,84.73,165.56,102.06,147.42,415.04,Single-ply,SBD,M,
Boys,89.81,8,Marco Ponce,Junction,85.32,149.69,92.99,165.56,408.23,Single-ply,SBD,M,
Boys,89.81,9,Eric Dehoyos,Ozona,88.45,142.88,111.13,142.88,396.89,Single-ply,SBD,M,
Boys,89.81,10,Michael Flores #12,Ozona,85.68,90.72,65.77,102.06,258.55,Single-ply,SBD,M,
Boys,99.79,1,Eli Hernandez,Big Lake Reagan County,99.65,265.35,147.42,215.46,628.23,Single-ply,SBD,M,
Boys,99.79,2,Mat Guerrero,Big Lake Reagan County,95.16,226.8,129.27,204.12,560.19,Single-ply,SBD,M,
Boys,99.79,3,Roberto Rivas,Rocksprings,95.57,226.8,97.52,229.06,553.38,Single-ply,SBD,M,
Boys,99.79,4,Elijah Samaniego,Sonora,97.98,224.53,122.47,190.51,537.51,Single-ply,SBD,M,
Boys,99.79,5,Kyle Sanders,Rocksprings,90.63,224.53,115.67,190.51,530.7,Single-ply,SBD,M,
Boys,99.79,6,Joel Garcia,Miles,97.07,190.51,108.86,208.65,508.02,Single-ply,SBD,M,
Boys,99.79,7,Zach Luna,Eldorado,91.58,188.24,111.13,183.7,483.08,Single-ply,SBD,M,
Boys,99.79,8,Gabe Ceniceros,Center Point,97.48,181.44,92.99,165.56,439.98,Single-ply,SBD,M,
Boys,99.79,9,Jaysen Santellano,Eldorado,91.63,142.88,111.13,170.1,424.11,Single-ply,SBD,M,
Boys,99.79,10,Xavier Rangel,San Angelo Lake View,98.88,142.88,108.86,149.69,401.43,Single-ply,SBD,M,
Boys,99.79,11,Zach Kelly,Christoval,95.84,142.88,83.91,156.49,383.29,Single-ply,SBD,M,
Boys,99.79,DQ,Zeke Tafoya,Leakey,99.79,142.88,,129.27,,Single-ply,SBD,M,
Boys,109.77,1,Jake Laque,Center Point,101.38,272.16,136.08,215.46,623.69,Single-ply,SBD,M,
Boys,109.77,2,Vinny Pina,Eldorado,108.86,217.72,133.81,242.67,594.21,Single-ply,SBD,M,
Boys,109.77,3,Alex Alcantar,San Angelo Lake View,105.87,231.33,129.27,208.65,569.26,Single-ply,SBD,M,
Boys,109.77,4,Bryan Gutierrez,Big Lake Reagan County,106.55,238.14,131.54,192.78,562.45,Single-ply,SBD,M,
Boys,109.77,5,Manuel Davila,Big Lake Reagan County,105.28,226.8,138.35,167.83,532.97,Single-ply,SBD,M,
Boys,109.77,6,Isidro Rodriguez,Big Lake Reagan County,107.82,224.53,113.4,188.24,526.17,Single-ply,SBD,M,
Boys,109.77,7,Braxton Elias,Eldorado,106.59,204.12,117.93,197.31,519.36,Single-ply,SBD,M,
Boys,109.77,8,Isaac Cordova,San Angelo Lake View,101.33,199.58,111.13,204.12,514.83,Single-ply,SBD,M,
Boys,109.77,9,Seth Parker,Eldorado,101.38,181.44,102.06,183.7,467.2,Single-ply,SBD,M,
Boys,109.77,10,Aaron Davis,Center Point,102.38,161.03,83.91,181.44,426.38,Single-ply,SBD,M,
Boys,109.77,DQ,Caleb Yeschke,Leakey,109.5,158.76,,167.83,,Single-ply,SBD,M,
Boys,124.74,1,Juan Ortiz,San Angelo Lake View,123.69,272.16,172.37,263.08,707.6,Single-ply,SBD,M,
Boys,124.74,2,John Michael Kirkland,Rocksprings,112.4,256.28,151.95,265.35,673.58,Single-ply,SBD,M,
Boys,124.74,3,Cesar Avila,Junction,113.49,249.48,111.13,226.8,587.4,Single-ply,SBD,M,
Boys,124.74,4,Jacob Martinez #7,Sonora,115.39,190.51,129.27,197.31,517.1,Single-ply,SBD,M,
Boys,124.74,5,Austin Kotsch,Eldorado,120.2,170.1,131.54,179.17,480.81,Single-ply,SBD,M,
Boys,124.74,6,Aaron Willis,Junction,111.54,165.56,92.99,136.08,394.63,Single-ply,SBD,M,
Boys,139.71,1,Ernesto Nava,Eldorado,127.91,274.42,158.76,226.8,659.98,Single-ply,SBD,M,
Boys,139.71,2,John Cepeda,San Angelo Lake View,126.82,206.38,138.35,181.44,526.17,Single-ply,SBD,M,
Boys,139.71,DQ,Jadon Dobbins,Rocksprings,130.27,142.88,88.45,,,Single-ply,SBD,M,
Boys,139.71+,1,Keano Perez,Ozona,146.51,303.91,151.95,249.48,705.34,Single-ply,SBD,M,
Boys,139.71+,2,Rafael Benavides,Junction,150.18,272.16,181.44,226.8,680.39,Single-ply,SBD,M,
Boys,139.71+,3,Cj Larson,Miles,140.34,90.72,63.5,120.2,274.42,Single-ply,SBD,M,
Boys,,NS,Major Conner,Mertzon Irion County,,,,,,Single-ply,SBD,M,
