Name,Sex,WeightClassKg,Division,AgeRange,Equipment,Best3BenchKg,Best3DeadliftKg,TotalKg,Event,Place
N. Graunke,F,,Submaster,33-39,Single-ply,,,64.41,BD,1
J. Hill,M,67.5,Master,50-59,Single-ply,,,67.13,BD,1
K. Mays,M,82.5,Open,0-999,Single-ply,,,78.93,BD,1
Morgan Mann,M,82.5,Open,0-999,Single-ply,,,130.63,BD,2
Bobby Keys,M,82.5,Open,0-999,Single-ply,,,82.1,BD,3
S. Eastburn,M,82.5,Submaster,33-39,Single-ply,,,99.34,BD,1
M. Guerra,M,82.5,Master,,Single-ply,,,78.93,BD,1
D. Pentecost,M,125+,Open,0-999,Single-ply,,,158.76,BD,1
