Division,WeightClassKg,Place,Name,Team,BodyweightKg,Best3SquatKg,Best3BenchKg,Best3DeadliftKg,TotalKg,Equipment,Event,Sex,BirthDate
Boys,51.71,1,Jaidyn DeMarse,New Home,50.76,104.33,65.77,113.4,283.5,Single-ply,SBD,M,
Boys,51.71,2,Bobby Hudson,Dumas,48.99,106.59,56.7,115.67,278.96,Single-ply,SBD,M,
Boys,51.71,NS,Jose Zamora,Dumas,,,,,,Single-ply,SBD,M,
Boys,55.79,1,Rj Lopez,Levelland,55.11,149.69,90.72,154.22,394.63,Single-ply,SBD,M,
Boys,55.79,2,Xayvion Gonzalez,Dimmitt,55.79,133.81,81.65,136.08,351.53,Single-ply,SBD,M,
Boys,55.79,3,Zaden Carrillo,Levelland,54.98,104.33,72.57,127.01,303.91,Single-ply,SBD,M,
Boys,55.79,4,Ty Dutton,New Home,55.2,102.06,68.04,97.52,267.62,Single-ply,SBD,M,
Boys,55.79,DQ,Chris Miner,Ralls,53.07,,,,,Single-ply,SBD,M,
Boys,59.87,1,Eric Cruz,Lubbock Roosevelt,58.51,183.7,113.4,172.37,469.47,Single-ply,SBD,M,
Boys,59.87,2,Jose Chavira,Dumas,59.83,161.03,113.4,174.63,449.06,Single-ply,SBD,M,
Boys,59.87,3,Jonathan Jaso,Dumas,59.28,161.03,88.45,170.1,419.57,Single-ply,SBD,M,
Boys,59.87,4,Josue Fernandez,Dumas,59.69,149.69,90.72,156.49,396.89,Single-ply,SBD,M,
Boys,59.87,5,Bryan Tarango,Dimmitt,59.87,147.42,83.91,165.56,396.89,Single-ply,SBD,M,
Boys,59.87,6,Aiden Russell,Lubbock Roosevelt,58.97,113.4,83.91,136.08,333.39,Single-ply,SBD,M,
Boys,59.87,7,Lizandro Rocha,Dimmitt,58.92,122.47,65.77,142.88,331.12,Single-ply,SBD,M,
Boys,59.87,8,Patricio Garcia,Brownfield,58.51,115.67,56.7,122.47,294.84,Single-ply,SBD,M,
Boys,67.13,1,Gabriel Reyes,Dimmitt,63.87,163.29,108.86,201.85,474,Single-ply,SBD,M,
Boys,67.13,2,Carlos Parra,Dumas,67.13,185.97,106.59,172.37,464.93,Single-ply,SBD,M,
Boys,67.13,3,Angel Camero,Levelland,67.13,151.95,102.06,206.38,460.4,Single-ply,SBD,M,
Boys,67.13,4,Jess Philley,Dumas,67,183.7,113.4,161.03,458.13,Single-ply,SBD,M,
Boys,67.13,5,Michael Garza #7,Wolfforth Frenship,65.41,142.88,106.59,161.03,410.5,Single-ply,SBD,M,
Boys,67.13,6,David Hagood,Lubbock Roosevelt,65.77,158.76,97.52,145.15,401.43,Single-ply,SBD,M,
Boys,67.13,7,Tyler Valdez,Levelland,67.13,142.88,92.99,158.76,394.63,Single-ply,SBD,M,
Boys,67.13,8,Logan Bartlett,Lubbock Roosevelt,66.22,140.61,86.18,161.03,387.82,Single-ply,SBD,M,
Boys,67.13,9,Jorge Bo Hernandez,Dimmitt,63.59,136.08,95.25,154.22,385.55,Single-ply,SBD,M,
Boys,67.13,10,Uriah Two Two,Vega,63.64,138.35,68.04,140.61,347,Single-ply,SBD,M,
Boys,67.13,11,Allen Flores,Sudan,66.09,120.2,68.04,149.69,337.93,Single-ply,SBD,M,
Boys,67.13,12,Enrique Gonzales,Sudan,65.05,113.4,63.5,151.95,328.85,Single-ply,SBD,M,
Boys,67.13,DQ,Carson Simmons,Lubbock Roosevelt,63.05,,,,,Single-ply,SBD,M,
Boys,67.13,DQ,Trae Zavala,Ralls,64.14,,,,,Single-ply,SBD,M,
Boys,67.13,NS,Nathan Gonzales,Dumas,,,,,,Single-ply,SBD,M,
Boys,67.13,DQ,Luis Escarcaga,Dumas,67,167.83,115.67,172.37,,Single-ply,SBD,M,
Boys,74.84,1,James Bednorz,Dumas,74.39,215.46,145.15,199.58,560.19,Single-ply,SBD,M,
Boys,74.84,2,Daniel Estrada,New Home,68.4,197.31,124.74,201.85,523.9,Single-ply,SBD,M,
Boys,74.84,3,Sabian Martinez,Dimmitt,72.71,185.97,120.2,181.44,487.61,Single-ply,SBD,M,
Boys,74.84,4,Justin Zavala,Ralls,74.84,154.22,108.86,158.76,421.84,Single-ply,SBD,M,
Boys,74.84,5,Eusubio Garcia,Brownfield,73.3,149.69,90.72,158.76,399.16,Single-ply,SBD,M,
Boys,74.84,6,Matthew Landin,Wolfforth Frenship,70.49,145.15,68.04,165.56,378.75,Single-ply,SBD,M,
Boys,74.84,7,Christian Serna,Wolfforth Frenship,70.76,129.27,77.11,151.95,358.34,Single-ply,SBD,M,
Boys,74.84,8,Jackson Gibbs,Levelland,70.67,124.74,65.77,149.69,340.19,Single-ply,SBD,M,
Boys,74.84,9,Jose Sauceda,Ralls,71.08,120.2,81.65,136.08,337.93,Single-ply,SBD,M,
Boys,74.84,DQ,Chris Holloway,Wolfforth Frenship,70.13,90.72,,,,Single-ply,SBD,M,
Boys,74.84,DQ,Elijay Munoz,Levelland,70.49,136.08,92.99,,,Single-ply,SBD,M,
Boys,74.84,DQ,Jaxon Forsythe,New Home,72.98,,,,,Single-ply,SBD,M,
Boys,74.84,DQ,Zane Holland,Dumas,68.45,183.7,111.13,,,Single-ply,SBD,M,
Boys,82.1,1,Sabien Perry,Dumas,78.61,278.96,151.95,226.8,657.71,Single-ply,SBD,M,
Boys,82.1,2,Alex Trevino,Lubbock Roosevelt,80.74,267.62,127.01,251.74,646.37,Single-ply,SBD,M,
Boys,82.1,3,Yahir Mendoza,Dumas,79.83,258.55,124.74,235.87,619.15,Single-ply,SBD,M,
Boys,82.1,4,Francisco Garza,Brownfield,79.83,215.46,131.54,199.58,546.58,Single-ply,SBD,M,
Boys,82.1,5,Steve Salazar,Ralls,75.8,192.78,120.2,206.38,519.36,Single-ply,SBD,M,
Boys,82.1,6,Brody Black,Vega,75.98,204.12,106.59,183.7,494.42,Single-ply,SBD,M,
Boys,82.1,7,Christian Smith,Levelland,77.43,156.49,95.25,204.12,455.86,Single-ply,SBD,M,
Boys,82.1,8,Zach Long,Wolfforth Frenship,81.6,138.35,99.79,158.76,396.89,Single-ply,SBD,M,
Boys,82.1,9,Kaden Coats,Wolfforth Frenship,80.88,127.01,97.52,151.95,376.48,Single-ply,SBD,M,
Boys,82.1,10,Jack Corbin,Wolfforth Frenship,78.61,127.01,77.11,149.69,353.8,Single-ply,SBD,M,
Boys,82.1,11,Damion Reyes,Levelland,77.84,124.74,77.11,124.74,326.59,Single-ply,SBD,M,
Boys,82.1,12,Avery Gutierrez,Wolfforth Frenship,78.7,113.4,68.04,120.2,301.64,Single-ply,SBD,M,
Boys,82.1,NS,Sergio Salinas,Ralls,,,,,,Single-ply,SBD,M,
Boys,89.81,1,Dalton Leven,Dumas,87.14,265.35,149.69,226.8,641.83,Single-ply,SBD,M,
Boys,89.81,2,Zach Anthony,Lubbock Trinity Christian Schools,89.68,244.94,142.88,226.8,614.62,Single-ply,SBD,M,
Boys,89.81,3,Nate Gensler,Lubbock Roosevelt,84.37,238.14,136.08,238.14,612.35,Single-ply,SBD,M,
Boys,89.81,4,Austin Ferriera,Brownfield,88.68,222.26,142.88,199.58,564.72,Single-ply,SBD,M,
Boys,89.81,5,Evan Reid,Wolfforth Frenship,88.31,190.51,108.86,181.44,480.81,Single-ply,SBD,M,
Boys,89.81,6,Reece Roberts #2,Wolfforth Frenship,87,170.1,111.13,174.63,455.86,Single-ply,SBD,M,
Boys,89.81,7,Dominic Hernandez,Lubbock Roosevelt,88,181.44,120.2,154.22,455.86,Single-ply,SBD,M,
Boys,89.81,8,Jayden Johns,Wolfforth Frenship,82.69,167.83,90.72,158.76,417.3,Single-ply,SBD,M,
Boys,89.81,9,Jacob Bankston,Wolfforth Frenship,84.69,151.95,81.65,172.37,405.97,Single-ply,SBD,M,
Boys,89.81,DQ,Abraham Loeza,Dimmitt,84.87,,,,,Single-ply,SBD,M,
Boys,99.79,1,JJ Diaz,Lubbock Roosevelt,93.89,290.3,158.76,256.28,705.34,Single-ply,SBD,M,
Boys,99.79,2,Gerardo Gonzalez,Dimmitt,94.35,226.8,117.93,272.16,616.89,Single-ply,SBD,M,
Boys,99.79,3,Arnoldo Hernandez,Dumas,94.48,226.8,140.61,219.99,587.4,Single-ply,SBD,M,
Boys,99.79,4,Angel Quiroz,Dumas,90.99,226.8,147.42,208.65,582.87,Single-ply,SBD,M,
Boys,99.79,5,Landin Noey,Lubbock Roosevelt,97.98,199.58,122.47,213.19,535.24,Single-ply,SBD,M,
Boys,99.79,6,Brayden Cortinaz,Wolfforth Frenship,99.79,206.38,97.52,217.72,521.63,Single-ply,SBD,M,
Boys,99.79,7,Matthew Lopez #4,Dimmitt,96.52,190.51,117.93,199.58,508.02,Single-ply,SBD,M,
Boys,99.79,8,Joe Pena,Levelland,93.67,190.51,113.4,179.17,483.08,Single-ply,SBD,M,
Boys,99.79,9,James Isaacson,Lubbock Trinity Christian Schools,93.62,195.04,117.93,165.56,478.54,Single-ply,SBD,M,
Boys,99.79,10,Aiden Herrera,Levelland,95.39,181.44,124.74,163.29,469.47,Single-ply,SBD,M,
Boys,99.79,11,Colten Watts,Wolfforth Frenship,92.9,158.76,72.57,151.95,383.29,Single-ply,SBD,M,
Boys,99.79,NS,Thomas Sanchez,Lubbock Roosevelt,,,,,,Single-ply,SBD,M,
Boys,109.77,1,Martin Hernandez #7,Dimmitt,108.09,215.46,122.47,240.4,578.33,Single-ply,SBD,M,
Boys,109.77,2,Reynaldo Loredo,Wolfforth Frenship,109.23,224.53,124.74,226.8,576.06,Single-ply,SBD,M,
Boys,109.77,3,Jesus Lopez,Dimmitt,102.33,204.12,106.59,204.12,514.83,Single-ply,SBD,M,
Boys,109.77,4,Xavier Espinoza,Levelland,100.29,188.24,108.86,204.12,501.22,Single-ply,SBD,M,
Boys,109.77,5,Chase Pickering,Levelland,109.36,165.56,90.72,149.69,405.97,Single-ply,SBD,M,
Boys,109.77,DQ,Dylan Hernandez,Levelland,100.52,183.7,,,,Single-ply,SBD,M,
Boys,124.74,1,Hector Pando,Dumas,119.57,272.16,183.7,260.82,716.68,Single-ply,SBD,M,
Boys,124.74,2,Kesean Dever,Brownfield,113.85,254.01,161.03,235.87,650.91,Single-ply,SBD,M,
Boys,124.74,3,Chris Lea,Wolfforth Frenship,123.38,219.99,117.93,210.92,548.85,Single-ply,SBD,M,
Boys,124.74,4,Joshua Ortiz,Wolfforth Frenship,120.47,215.46,104.33,213.19,532.97,Single-ply,SBD,M,
Boys,124.74,5,Jon Conley,Sudan,117.39,199.58,113.4,181.44,494.42,Single-ply,SBD,M,
Boys,124.74,6,Zane Mendez,Ralls,115.98,208.65,95.25,183.7,487.61,Single-ply,SBD,M,
Boys,124.74,7,Diego Garza,Wolfforth Frenship,119.79,163.29,106.59,183.7,453.59,Single-ply,SBD,M,
Boys,139.71,1,Hunter Mastin,Lubbock Trinity Christian Schools,134.4,294.84,163.29,226.8,684.92,Single-ply,SBD,M,
Boys,139.71,2,John Rodriguez,Levelland,135.08,235.87,142.88,179.17,557.92,Single-ply,SBD,M,
Boys,139.71,3,Nathaniel Norgaard,Ralls,131.27,131.54,81.65,129.27,342.46,Single-ply,SBD,M,
Boys,139.71,NS,Padro Loredo,Wolfforth Frenship,,,,,,Single-ply,SBD,M,
Boys,139.71,NS,Jacob Hernandez,Vega,,,,,,Single-ply,SBD,M,
Boys,139.71,DQ,Joshua Rangel,Wolfforth Frenship,133.45,204.12,133.81,,,Single-ply,SBD,M,
Boys,139.71+,1,Lucas Martinez,Dumas,139.78,283.5,199.58,249.48,732.55,Single-ply,SBD,M,
Boys,139.71+,2,Gabe Pilger,Wolfforth Frenship,157.35,197.31,117.93,136.08,451.32,Single-ply,SBD,M,
Boys,,NS,Fernandeo Mendez,Brownfield,,,,,,Single-ply,SBD,M,
Boys,,NS,Nathaniel Luna,Brownfield,,,,,,Single-ply,SBD,M,
Boys,,NS,Zayden Morin,Brownfield,,,,,,Single-ply,SBD,M,
